[gd_scene load_steps=5 format=2]

[ext_resource path="res://Scenes/Game.tscn" type="PackedScene" id=1]
[ext_resource path="res://Scenes/GameOver.tscn" type="PackedScene" id=2]
[ext_resource path="res://Scenes/Main.gd" type="Script" id=3]
[ext_resource path="res://Assets/Music/Asteroids mus_mainloop01.wav" type="AudioStream" id=4]

[node name="Main" type="Node"]
pause_mode = 2
script = ExtResource( 3 )

[node name="Game" parent="." instance=ExtResource( 1 )]

[node name="GameOver" parent="." instance=ExtResource( 2 )]

[node name="AudioStreamPlayer" type="AudioStreamPlayer" parent="."]
stream = ExtResource( 4 )
autoplay = true
[connection signal="gameOver" from="Game" to="." method="_on_Game_gameOver"]
[connection signal="exit_pressed" from="GameOver" to="." method="_on_GameOver_exit_pressed"]
[connection signal="play_pressed" from="GameOver" to="." method="_on_GameOver_play_pressed"]
