[gd_scene load_steps=3 format=2]

[ext_resource path="res://Assets/Sprites/asteroid_32x32_2.png" type="Texture" id=1]
[ext_resource path="res://Stuff/Asteroid.gd" type="Script" id=2]

[node name="asteroid_32x32_2" type="Area2D"]
script = ExtResource( 2 )

[node name="Sprite" type="Sprite" parent="."]
texture = ExtResource( 1 )

[node name="CollisionPolygon2D" type="CollisionPolygon2D" parent="."]
polygon = PoolVector2Array( -13.3902, -10.233, 10.5923, -10.7064, 7.12112, 7.91156, -12.1279, 10.7516, -8.6568, -1.08186 )
