[gd_scene load_steps=3 format=2]

[ext_resource path="res://Assets/Sprites/asteroid_32x32_3.png" type="Texture" id=1]
[ext_resource path="res://Stuff/Asteroid.gd" type="Script" id=2]

[node name="asteroid_32x32_3" type="Area2D"]
script = ExtResource( 2 )

[node name="CollisionPolygon2D" type="CollisionPolygon2D" parent="."]
polygon = PoolVector2Array( -12.6013, -12.1264, 9.96115, -13.3886, 12.3278, -2.65965, -3.92342, 13.1183 )

[node name="Sprite" type="Sprite" parent="."]
texture = ExtResource( 1 )
