[gd_scene load_steps=3 format=2]

[ext_resource path="res://Assets/Sprites/asteroid_64x64_1.png" type="Texture" id=1]
[ext_resource path="res://Stuff/Asteroid.gd" type="Script" id=2]

[node name="asteroid_64x64_1" type="Area2D"]
script = ExtResource( 2 )

[node name="CollisionPolygon2D" type="CollisionPolygon2D" parent="."]
polygon = PoolVector2Array( -7.079, -25.0643, 28.8947, -16.0709, 20.5324, 25.7406, -18.5969, 23.3739, -28.8525, -1.08186 )

[node name="Sprite" type="Sprite" parent="."]
texture = ExtResource( 1 )
