[gd_scene load_steps=4 format=2]

[ext_resource path="res://Assets/Sprites/Player.png" type="Texture" id=1]
[ext_resource path="res://Stuff/Player.gd" type="Script" id=2]
[ext_resource path="res://Assets/SFX/laser02_341234_sharesynth.wav" type="AudioStream" id=3]

[node name="Player" type="Area2D"]
script = ExtResource( 2 )
__meta__ = {
"_edit_group_": true
}

[node name="ShootSFX" type="AudioStreamPlayer" parent="."]
stream = ExtResource( 3 )

[node name="Player" type="Sprite" parent="."]
texture = ExtResource( 1 )

[node name="CollisionPolygon2D" type="CollisionPolygon2D" parent="."]
polygon = PoolVector2Array( -12.9168, -12.9153, 14.2212, 0.0226021, -13.7057, 13.4338, -7.71012, -0.766296 )

[node name="BulletSpawnOffset" type="Position2D" parent="."]
position = Vector2( 16, 0 )
[connection signal="area_entered" from="." to="." method="_on_Player_area_entered"]
